forcats 0.1.0 • forcats
…
#> 4  2000 Never married    39 White Not app… Ind,near… Ortho… Not a…       4

#> 5  2000 Divorced         25 White Not app… Not str … None   Not a…       1

#> 6  2000 Married          25 White $20000 … Strong d… Prote… South…      NA

#> # ... with 2.148e+04 more rows

Change level values

You can recode specified factor levels with fct_recode():

gss_cat %>% count(partyid)

#> # A tibble: 10 x 2

#>   partyid                n

#>   <fct>              <int>

#> 1 No answer            154

#> 2 Don't know             1

#> 3 Other party          393

#> 4 Strong republican   2314

#> 5 Not str republican  3032

#> 6 Ind,near rep        1791

#> # ... with 4 more rows
…
    "Republican, weak"      = "Not str republican",

    "Independent, near rep" = "Ind,near rep",

    "Independent, near dem" = "Ind,near dem",

    "Democrat, weak"        = "Not str democrat",

    "Democrat, strong"      = "Strong democrat"

  )) %>%

  count(partyid)

#> # A tibble: 10 x 2

#>   partyid                   n

#>   <fct>                 <int>

#> 1 No answer               154

#> 2 Don't know                1

#> 3 Other party             393

#> 4 Republican, strong     2314

#> 5 Republican, weak       3032

#> 6 Independent, near rep  1791

#> # ... with 4 more rows
…
#> 3 Jewish       388

#> 4 Catholic    5124

#> 5 Protestant 10846

#> 6 Other        913

gss_cat %>% 

  mutate(relig = fct_lump(relig, prop = -0.10)) %>% 

  count(relig)

#> # A tibble: 12 x 2

#>   relig                       n

#>   <fct>                   <int>

#> 1 No answer                  93

#> 2 Don't know                 15

#> 3 Inter-nondenominational   109

#> 4 Native american            23

#> 5 Christian                 689

#> 6 Orthodox-christian         95

#> # ... with 6 more rows
…
