Introduction to forcats • forcats
…
Note that fct_infreq() it automatically puts NA at the top, even though that doesn’t have the smallest number of entries.

Combining levels

Let’s take a look at skin color now:

starwars %>%
  count(skin_color, sort = TRUE)
#> # A tibble: 31 x 2
#>    skin_color     n
#>    <chr>      <int>
#>  1 fair          17
#>  2 light         11
#>  3 dark           6
#>  4 green          6
#>  5 grey           6
#>  6 pale           5
#>  7 brown          4
#>  8 blue           2
#>  9 blue, grey     2
#> 10 orange         2
#> # … with 21 more rows
…
