A sample of categorical variables from the General Social survey — gss_cat • forcats
…
denom
denomination

tvhours
hours per day watching tv

    Source

    Downloaded from https://gssdataexplorer.norc.org/.

    Examples

gss_cat
#> # A tibble: 21,483 × 9
#>     year marital         age race  rincome  partyid relig denom tvhours
#>    <int> <fct>         <int> <fct> <fct>    <fct>   <fct> <fct>   <int>
#>  1  2000 Never married    26 White $8000 t… Ind,ne… Prot… Sout…      12
#>  2  2000 Divorced         48 White $8000 t… Not st… Prot… Bapt…      NA
#>  3  2000 Widowed          67 White Not app… Indepe… Prot… No d…       2
#>  4  2000 Never married    39 White Not app… Ind,ne… Orth… Not …       4
#>  5  2000 Divorced         25 White Not app… Not st… None  Not …       1
#>  6  2000 Married          25 White $20000 … Strong… Prot… Sout…      NA
#>  7  2000 Never married    36 White $25000 … Not st… Chri… Not …       3
#>  8  2000 Divorced         44 White $7000 t… Ind,ne… Prot… Luth…      NA
#>  9  2000 Married          44 White $25000 … Not st… Prot… Other       0
#> 10  2000 Married          47 White $25000 … Strong… Prot… Sout…       3
#> # ℹ 21,473 more rows
…
