gss_cat. forcats 0.1.0
…
      tvhourshours per day watching tv

      Source

      Downloaded from https://gssdataexplorer.norc.org/.

      Description

      A sample of categorical variables from the General Social survey

    Examples

gss_cat

# A tibble: 21,483 × 9
    year       marital   age   race        rincome            partyid              relig
   <int>        <fctr> <int> <fctr>         <fctr>             <fctr>             <fctr>
1   2000 Never married    26  White  $8000 to 9999       Ind,near rep         Protestant
2   2000      Divorced    48  White  $8000 to 9999 Not str republican         Protestant
3   2000       Widowed    67  White Not applicable        Independent         Protestant
4   2000 Never married    39  White Not applicable       Ind,near rep Orthodox-christian
5   2000      Divorced    25  White Not applicable   Not str democrat               None
6   2000       Married    25  White $20000 - 24999    Strong democrat         Protestant
7   2000 Never married    36  White $25000 or more Not str republican          Christian
8   2000      Divorced    44  White  $7000 to 7999       Ind,near dem         Protestant
9   2000       Married    44  White $25000 or more   Not str democrat         Protestant
10  2000       Married    47  White $25000 or more  Strong republican         Protestant
# ... with 21,473 more rows, and 2 more variables: denom <fctr>, tvhours <int>
…
